﻿estado;P';P;V;LV;D;L;TIPO;A;ES;ARG;CMD;LD;OPRD;COND;CAB;EXP_R;CP;R;CABR;CPR
0;;1;;;;;;;;;;;;;;;;;;
1;;;;;;;;;;;;;;;;;;;;
2;;;3;;;;;;;;;;;;;;;;;
3;;;;;;;;5;6;;7;;;8;14;;;9;15;
4;;;;18;19;;21;;;;;;;;;;;;;
5;;;;;;;;;;;;;;;;;;;;
6;;;;;;;;25;6;;7;;;8;14;;;9;15;
7;;;;;;;;26;6;;7;;;8;14;;;9;15;
8;;;;;;;;27;6;;7;;;8;14;;;9;15;
9;;;;;;;;28;6;;7;;;8;14;;;9;15;
10;;;;;;;;;;;;;;;;;;;;
11;;;;;;;;;;;;;;;;;;;;
12;;;;;;;;;;30;;;;;;;;;;
13;;;;;;;;;;;;;;;;;;;;
14;;;;;;;;;36;;37;;;38;14;;35;;;
15;;;;;;;;;41;;42;;;43;14;;;;;40
16;;;;;;;;;;;;;;;;;;;;
17;;;;;;;;;;;;;;;;;;;;
18;;;;;;;;;;;;;;;;;;;;
19;;;;47;19;;21;;;;;;;;;;;;;
20;;;;;;;;;;;;;;;;;;;;
21;;;;;;49;;;;;;;;;;;;;;
22;;;;;;;;;;;;;;;;;;;;
23;;;;;;;;;;;;;;;;;;;;
24;;;;;;;;;;;;;;;;;;;;
25;;;;;;;;;;;;;;;;;;;;
26;;;;;;;;;;;;;;;;;;;;
27;;;;;;;;;;;;;;;;;;;;
28;;;;;;;;;;;;;;;;;;;;
29;;;;;;;;;;;;;;;;;;;;
30;;;;;;;;;;;;;;;;;;;;
31;;;;;;;;;;;;;;;;;;;;
32;;;;;;;;;;;;;;;;;;;;
33;;;;;;;;;;;;;;;;;;;;
34;;;;;;;;;;;;53;54;;;;;;;
35;;;;;;;;;;;;;;;;;;;;
36;;;;;;;;;36;;37;;;38;14;;57;;;
37;;;;;;;;;36;;37;;;38;14;;58;;;
38;;;;;;;;;36;;37;;;38;14;;59;;;
39;;;;;;;;;;;;;;;;;;;;
40;;;;;;;;;;;;;;;;;;;;
41;;;;;;;;;41;;42;;;43;14;;;;;60
42;;;;;;;;;41;;42;;;43;14;;;;;61
43;;;;;;;;;41;;42;;;43;14;;;;;62
44;;;;;;;;;;;;;;;;;;;;
45;;;;;;;;;;;;;64;;;63;;;;
46;;;;;;;;;;;;;64;;;65;;;;
47;;;;;;;;;;;;;;;;;;;;
48;;;;;;;;;;;;;;;;;;;;
49;;;;;;;;;;;;;;;;;;;;
50;;;;;;;;;;;;;;;;;;;;
51;;;;;;;;;;;;;;;;;;;;
52;;;;;;;;;;;;;;;;;;;;
53;;;;;;;;;;;;;;;;;;;;
54;;;;;;;;;;;;;;;;;;;;
55;;;;;;;;;;;;;;;;;;;;
56;;;;;;;;;;;;;;;;;;;;
57;;;;;;;;;;;;;;;;;;;;
58;;;;;;;;;;;;;;;;;;;;
59;;;;;;;;;;;;;;;;;;;;
60;;;;;;;;;;;;;;;;;;;;
61;;;;;;;;;;;;;;;;;;;;
62;;;;;;;;;;;;;;;;;;;;
63;;;;;;;;;;;;;;;;;;;;
64;;;;;;;;;;;;;;;;;;;;
65;;;;;;;;;;;;;;;;;;;;
66;;;;;;;;;;;;;;;;;;;;
67;;;;;;73;;;;;;;;;;;;;;
68;;;;;;;;;;;;;;;;;;;;
69;;;;;;;;;;;;;74;;;;;;;
70;;;;;;;;;;;;;;;;;;;;
71;;;;;;;;;;;;;76;;;;;;;
72;;;;;;;;;;;;;;;;;;;;
73;;;;;;;;;;;;;;;;;;;;
74;;;;;;;;;;;;;;;;;;;;
75;;;;;;;;;;;;;;;;;;;;
76;;;;;;;;;;;;;;;;;;;;
